Certificate:
    Data:
        Version: 3 (0x2)
        Serial Number: 78405958632091 (0x474f4f50029b)
    Signature Algorithm: sha1WithRSAEncryption
        Issuer: C=US, O=Google Inc, CN=Google Internet Authority
        Validity
            Not Before: Apr 24 12:36:07 2013 GMT
            Not After : Dec 30 00:00:00 2013 GMT
        Subject: C=US, ST=California, O=Google Inc, CN=google.com
        Subject Public Key Info:
            Public Key Algorithm: rsaEncryption
                Public-Key: (1024 bit)
                Modulus:
                    00:c2:54:11:64:a6:45:5d:7a:5b:6d:d1:70:6a:6c:
                    80:9f:67:74:95:85:97:58:6b:7a:5b:5c:51:37:98:
                    a5:e7:73:82:e9:e3:be:93:4c:cb:d8:a2:dc:a5:ff:
                    00:ff:91:a4:2e:34:9f:32:b4:db:50:ec:6e:77:54:
                    d0:35:01:02:be:2e:74:9d:df:9c:2d:22:e9:e1:51:
                    08:13:7a:49:b4:5e:9e:0a:d7:08:c1:ee:31:1d:0f:
                    94:70:bc:74:13:21:71:84:93:d6:de:92:64:be:2c:
                    d4:89:2f:78:7c:e0:a1:7d:31:d0:69:b5:b8:71:38:
                    fc:89:db:5c:54:cc:6b:04:cd
                Exponent: 65537 (0x10001)
        X509v3 extensions:
            X509v3 Basic Constraints: critical
                CA:FALSE
            X509v3 Extended Key Usage: 
                TLS Web Server Authentication, TLS Web Client Authentication
            X509v3 Subject Key Identifier: 
                E6:0A:29:A1:CA:65:A2:33:2C:D6:07:92:28:98:22:50:0F:AF:58:B3
            X509v3 Authority Key Identifier: 
                keyid:BF:C0:30:EB:F5:43:11:3E:67:BA:9E:91:FB:FC:6A:DA:E3:6B:12:24

            X509v3 CRL Distribution Points: 

                Full Name:
                  URI:http://www.gstatic.com/GoogleInternetAuthority/GoogleInternetAuthority.crl

            Authority Information Access: 
                CA Issuers - URI:http://www.gstatic.com/GoogleInternetAuthority/GoogleInternetAuthority.crt

            X509v3 Subject Alternative Name: 
                DNS:google.com, DNS:*.google.com, DNS:*.youtube.com, DNS:youtube.com, DNS:*.youtube-nocookie.com, DNS:youtu.be, DNS:*.ytimg.com, DNS:*.android.com, DNS:android.com, DNS:*.googlecommerce.com, DNS:googlecommerce.com, DNS:*.url.google.com, DNS:*.urchin.com, DNS:urchin.com, DNS:*.google-analytics.com, DNS:google-analytics.com, DNS:*.cloud.google.com, DNS:goo.gl, DNS:g.co, DNS:*.gstatic.com, DNS:*.googleapis.cn, DNS:*.appengine.google.com, DNS:*.youtubeeducation.com, DNS:youtubeeducation.com, DNS:*.google.ac, DNS:*.google.ad, DNS:*.google.ae, DNS:*.google.af, DNS:*.google.ag, DNS:*.google.al, DNS:*.google.am, DNS:*.google.as, DNS:*.google.at, DNS:*.google.az, DNS:*.google.ba, DNS:*.google.be, DNS:*.google.bf, DNS:*.google.bg, DNS:*.google.bi, DNS:*.google.bj, DNS:*.google.bs, DNS:*.google.bt, DNS:*.google.by, DNS:*.google.ca, DNS:*.google.cat, DNS:*.google.cc, DNS:*.google.cd, DNS:*.google.cf, DNS:*.google.cg, DNS:*.google.ch, DNS:*.google.ci, DNS:*.google.cl, DNS:*.google.cm, DNS:*.google.cn, DNS:*.google.co.ao, DNS:*.google.co.bw, DNS:*.google.co.ck, DNS:*.google.co.cr, DNS:*.google.co.hu, DNS:*.google.co.id, DNS:*.google.co.il, DNS:*.google.co.im, DNS:*.google.co.in, DNS:*.google.co.je, DNS:*.google.co.jp, DNS:*.google.co.ke, DNS:*.google.co.kr, DNS:*.google.co.ls, DNS:*.google.co.ma, DNS:*.google.co.mz, DNS:*.google.co.nz, DNS:*.google.co.th, DNS:*.google.co.tz, DNS:*.google.co.ug, DNS:*.google.co.uk, DNS:*.google.co.uz, DNS:*.google.co.ve, DNS:*.google.co.vi, DNS:*.google.co.za, DNS:*.google.co.zm, DNS:*.google.co.zw, DNS:*.google.com.af, DNS:*.google.com.ag, DNS:*.google.com.ai, DNS:*.google.com.ar, DNS:*.google.com.au, DNS:*.google.com.bd, DNS:*.google.com.bh, DNS:*.google.com.bn, DNS:*.google.com.bo, DNS:*.google.com.br, DNS:*.google.com.by, DNS:*.google.com.bz, DNS:*.google.com.cn, DNS:*.google.com.co, DNS:*.google.com.cu, DNS:*.google.com.cy, DNS:*.google.com.do, DNS:*.google.com.ec, DNS:*.google.com.eg, DNS:*.google.com.et, DNS:*.google.com.fj, DNS:*.google.com.ge, DNS:*.google.com.gh, DNS:*.google.com.gi, DNS:*.google.com.gr, DNS:*.google.com.gt, DNS:*.google.com.hk, DNS:*.google.com.iq, DNS:*.google.com.jm, DNS:*.google.com.jo, DNS:*.google.com.kh, DNS:*.google.com.kw, DNS:*.google.com.lb, DNS:*.google.com.ly, DNS:*.google.com.mm, DNS:*.google.com.mt, DNS:*.google.com.mx, DNS:*.google.com.my, DNS:*.google.com.na, DNS:*.google.com.nf, DNS:*.google.com.ng, DNS:*.google.com.ni, DNS:*.google.com.np, DNS:*.google.com.nr, DNS:*.google.com.om, DNS:*.google.com.pa, DNS:*.google.com.pe, DNS:*.google.com.pg, DNS:*.google.com.ph, DNS:*.google.com.pk, DNS:*.google.com.pl, DNS:*.google.com.pr, DNS:*.google.com.py, DNS:*.google.com.qa, DNS:*.google.com.ru, DNS:*.google.com.sa, DNS:*.google.com.sb, DNS:*.google.com.sg, DNS:*.google.com.sl, DNS:*.google.com.sv, DNS:*.google.com.tj, DNS:*.google.com.tn, DNS:*.google.com.tr, DNS:*.google.com.tw, DNS:*.google.com.ua, DNS:*.google.com.uy, DNS:*.google.com.vc, DNS:*.google.com.ve, DNS:*.google.com.vn, DNS:*.google.cv, DNS:*.google.cz, DNS:*.google.de, DNS:*.google.dj, DNS:*.google.dk, DNS:*.google.dm, DNS:*.google.dz, DNS:*.google.ee, DNS:*.google.es, DNS:*.google.fi, DNS:*.google.fm, DNS:*.google.fr, DNS:*.google.ga, DNS:*.google.ge, DNS:*.google.gg, DNS:*.google.gl, DNS:*.google.gm, DNS:*.google.gp, DNS:*.google.gr, DNS:*.google.gy, DNS:*.google.hk, DNS:*.google.hn, DNS:*.google.hr, DNS:*.google.ht, DNS:*.google.hu, DNS:*.google.ie, DNS:*.google.im, DNS:*.google.info, DNS:*.google.iq, DNS:*.google.is, DNS:*.google.it, DNS:*.google.it.ao, DNS:*.google.je, DNS:*.google.jo, DNS:*.google.jobs, DNS:*.google.jp, DNS:*.google.kg, DNS:*.google.ki, DNS:*.google.kz, DNS:*.google.la, DNS:*.google.li, DNS:*.google.lk, DNS:*.google.lt, DNS:*.google.lu, DNS:*.google.lv, DNS:*.google.md, DNS:*.google.me, DNS:*.google.mg, DNS:*.google.mk, DNS:*.google.ml, DNS:*.google.mn, DNS:*.google.ms, DNS:*.google.mu, DNS:*.google.mv, DNS:*.google.mw, DNS:*.google.ne, DNS:*.google.ne.jp, DNS:*.google.net, DNS:*.google.ng, DNS:*.google.nl, DNS:*.google.no, DNS:*.google.nr, DNS:*.google.nu, DNS:*.google.off.ai, DNS:*.google.pk, DNS:*.google.pl, DNS:*.google.pn, DNS:*.google.ps, DNS:*.google.pt, DNS:*.google.ro, DNS:*.google.rs, DNS:*.google.ru, DNS:*.google.rw, DNS:*.google.sc, DNS:*.google.se, DNS:*.google.sh, DNS:*.google.si, DNS:*.google.sk, DNS:*.google.sm, DNS:*.google.sn, DNS:*.google.so, DNS:*.google.st, DNS:*.google.td, DNS:*.google.tg, DNS:*.google.tk, DNS:*.google.tl, DNS:*.google.tm, DNS:*.google.tn, DNS:*.google.to, DNS:*.google.tp, DNS:*.google.tt, DNS:*.google.us, DNS:*.google.uz, DNS:*.google.vg, DNS:*.google.vu, DNS:*.google.ws, DNS:google.ac, DNS:google.ad, DNS:google.ae, DNS:google.af, DNS:google.ag, DNS:google.al, DNS:google.am, DNS:google.as, DNS:google.at, DNS:google.az, DNS:google.ba, DNS:google.be, DNS:google.bf, DNS:google.bg, DNS:google.bi, DNS:google.bj, DNS:google.bs, DNS:google.bt, DNS:google.by, DNS:google.ca, DNS:google.cat, DNS:google.cc, DNS:google.cd, DNS:google.cf, DNS:google.cg, DNS:google.ch, DNS:google.ci, DNS:google.cl, DNS:google.cm, DNS:google.cn, DNS:google.co.ao, DNS:google.co.bw, DNS:google.co.ck, DNS:google.co.cr, DNS:google.co.hu, DNS:google.co.id, DNS:google.co.il, DNS:google.co.im, DNS:google.co.in, DNS:google.co.je, DNS:google.co.jp, DNS:google.co.ke, DNS:google.co.kr, DNS:google.co.ls, DNS:google.co.ma, DNS:google.co.mz, DNS:google.co.nz, DNS:google.co.th, DNS:google.co.tz, DNS:google.co.ug, DNS:google.co.uk, DNS:google.co.uz, DNS:google.co.ve, DNS:google.co.vi, DNS:google.co.za, DNS:google.co.zm, DNS:google.co.zw, DNS:google.com.af, DNS:google.com.ag, DNS:google.com.ai, DNS:google.com.ar, DNS:google.com.au, DNS:google.com.bd, DNS:google.com.bh, DNS:google.com.bn, DNS:google.com.bo, DNS:google.com.br, DNS:google.com.by, DNS:google.com.bz, DNS:google.com.cn, DNS:google.com.co, DNS:google.com.cu, DNS:google.com.cy, DNS:google.com.do, DNS:google.com.ec, DNS:google.com.eg, DNS:google.com.et, DNS:google.com.fj, DNS:google.com.ge, DNS:google.com.gh, DNS:google.com.gi, DNS:google.com.gr, DNS:google.com.gt, DNS:google.com.hk, DNS:google.com.iq, DNS:google.com.jm, DNS:google.com.jo, DNS:google.com.kh, DNS:google.com.kw, DNS:google.com.lb, DNS:google.com.ly, DNS:google.com.mm, DNS:google.com.mt, DNS:google.com.mx, DNS:google.com.my, DNS:google.com.na, DNS:google.com.nf, DNS:google.com.ng, DNS:google.com.ni, DNS:google.com.np, DNS:google.com.nr, DNS:google.com.om, DNS:google.com.pa, DNS:google.com.pe, DNS:google.com.pg, DNS:google.com.ph, DNS:google.com.pk, DNS:google.com.pl, DNS:google.com.pr, DNS:google.com.py, DNS:google.com.qa, DNS:google.com.ru, DNS:google.com.sa, DNS:google.com.sb, DNS:google.com.sg, DNS:google.com.sl, DNS:google.com.sv, DNS:google.com.tj, DNS:google.com.tn, DNS:google.com.tr, DNS:google.com.tw, DNS:google.com.ua, DNS:google.com.uy, DNS:google.com.vc, DNS:google.com.ve, DNS:google.com.vn, DNS:google.cv, DNS:google.cz, DNS:google.de, DNS:google.dj, DNS:google.dk, DNS:google.dm, DNS:google.dz, DNS:google.ee, DNS:google.es, DNS:google.fi, DNS:google.fm, DNS:google.fr, DNS:google.ga, DNS:google.ge, DNS:google.gg, DNS:google.gl, DNS:google.gm, DNS:google.gp, DNS:google.gr, DNS:google.gy, DNS:google.hk, DNS:google.hn, DNS:google.hr, DNS:google.ht, DNS:google.hu, DNS:google.ie, DNS:google.im, DNS:google.info, DNS:google.iq, DNS:google.is, DNS:google.it, DNS:google.it.ao, DNS:google.je, DNS:google.jo, DNS:google.jobs, DNS:google.jp, DNS:google.kg, DNS:google.ki, DNS:google.kz, DNS:google.la, DNS:google.li, DNS:google.lk, DNS:google.lt, DNS:google.lu, DNS:google.lv, DNS:google.md, DNS:google.me, DNS:google.mg, DNS:google.mk, DNS:google.ml, DNS:google.mn, DNS:google.ms, DNS:google.mu, DNS:google.mv, DNS:google.mw, DNS:google.ne, DNS:google.ne.jp, DNS:google.net, DNS:google.ng, DNS:google.nl, DNS:google.no, DNS:google.nr, DNS:google.nu, DNS:google.off.ai, DNS:google.pk, DNS:google.pl, DNS:google.pn, DNS:google.ps, DNS:google.pt, DNS:google.ro, DNS:google.rs, DNS:google.ru, DNS:google.rw, DNS:google.sc, DNS:google.se, DNS:google.sh, DNS:google.si, DNS:google.sk, DNS:google.sm, DNS:google.sn, DNS:google.so, DNS:google.st, DNS:google.td, DNS:google.tg, DNS:google.tk, DNS:google.tl, DNS:google.tm, DNS:google.tn, DNS:google.to, DNS:google.tp, DNS:google.tt, DNS:google.us, DNS:google.uz, DNS:google.vg, DNS:google.vu, DNS:google.ws
    Signature Algorithm: sha1WithRSAEncryption
         0b:bd:f7:0a:21:a3:30:93:94:9c:da:fa:29:c2:01:f3:5d:7f:
         dc:b7:69:84:0c:57:60:22:d0:c9:ec:85:99:3d:a9:fb:30:ce:
         19:17:39:a5:31:dc:70:dd:bd:ff:7a:71:7d:ec:43:ca:73:3b:
         60:23:89:c7:ad:04:f6:73:18:26:08:e2:54:01:b2:42:bd:28:
         da:0e:7e:e6:45:cc:76:89:eb:ba:2a:ae:05:21:60:98:32:19:
         f1:ae:2b:db:5e:f6:3a:cd:27:be:80:ba:dc:80:b3:39:5a:8c:
         88:73:e2:2b:a1:b2:d7:a0:cb:6f:77:c3:aa:6f:1e:63:f3:2c:
         90:9e
